https://dx.doi.org/10.1007/978-3-540-87827-8_28

https://dx.doi.org/10.1007/978-3-0348-9078-6_14
https://dx.doi.org/10.2307/2025976 


https://dx.doi.org/10.1090/conm/098 (full)
https://dx.doi.org/10.1215/ijm/1256049011 (part 1)
https://dx.doi.org/10.1215/ijm/1256049012 (part 2)


https://dx.doi.org/10.1017/s008045680002617x


https://dx.doi.org/10.1007/978-3-319-67398-1_17
https://dx.doi.org/10.1007/978-3-540-24771-5_22

https://dx.doi.org/10.3934/ipi.2013.7.1099
https://dx.doi.org/10.1007/s11263-008-0199-4



https://audentia-gestion.fr/MICROSOFT/4colproof.pdf
https://www.youtube.com/watch?v=yBXGdJw1xBI

https://www.youtube.com/watch?v=NgbK43jB4rQ
https://www.youtube.com/watch?v=laMkuPrad3s